<?xml version="1.0" encoding="UTF-8"?>
<session version="1.0">
<refactoring comment="Move element &apos;Lens.java&apos; to &apos;Aspects/src/info.owczarek.camera.accessories&apos;&#x0D;&#x0A;- Original project: &apos;Aspects&apos;&#x0D;&#x0A;- Destination element: &apos;Aspects/src/info.owczarek.camera.accessories&apos;&#x0D;&#x0A;- Original element: &apos;info.owczarek.aop.Lens.java&apos;&#x0D;&#x0A;- Update references to refactored element" description="Move compilation unit" destination="/src&lt;info.owczarek.camera.accessories" element1="/src&lt;info.owczarek.aop{Lens.java" files="0" flags="589830" folders="0" id="org.eclipse.jdt.ui.move" patterns="*" policy="org.eclipse.jdt.ui.moveResources" qualified="false" references="true" stamp="1398196714866" units="1" version="1.0"/>
</session>