<?xml version="1.0" encoding="UTF-8"?>
<session version="1.0">
<refactoring comment="Rename method &apos;exercise01.KeyTool.generateKeyPair(...)&apos; to &apos;generateKeyPairAndSaveToFiles&apos;&#x0D;&#x0A;- Original project: &apos;Owczarek-Artur_task05&apos;&#x0D;&#x0A;- Original element: &apos;exercise01.KeyTool.generateKeyPair(...)&apos;&#x0D;&#x0A;- Renamed element: &apos;exercise01.KeyTool.generateKeyPairAndSaveToFiles(...)&apos;&#x0D;&#x0A;- Update references to refactored element" delegate="false" deprecate="false" description="Rename method &apos;generateKeyPair&apos;" flags="589830" id="org.eclipse.jdt.ui.rename.method" input="/src&lt;exercise01{KeyTool.java[KeyTool~generateKeyPair~QString;~QString;~QString;" name="generateKeyPairAndSaveToFiles" references="true" stamp="1400519659896" version="1.0"/>
</session>